Thesis_INDUS_Analysis
…
# 2560
INDUS_2560 <- INDUS_2560 %>% mutate(B04 = ifelse(is.na(B04), 0, B04), B08 = ifelse(is.na(B08), 0, B08))

INDUS_2560 <- INDUS_2560 %>% mutate(num_employ = B04 + B08)

# 2565
INDUS_2565 <- INDUS_2565 %>% mutate(B04 = ifelse(is.na(B04), 0, B04), B08 = ifelse(is.na(B08), 0, B08))

INDUS_2565 <- INDUS_2565 %>% mutate(num_employ = B04 + B08)

## Let's examine SIZE_R, B04, and B08 of 2560
INDUS_2560 %>% select(SIZE_R, B04, B08)

# A tibble: 94,624 × 3
   SIZE_R   B04   B08
    <dbl> <dbl> <dbl>
 1      1     4     1
 2      7    18    16
 3      1     2     2
 4      1     2     0
 5      1     2     1
 6      1     1     3
 7      7    11    21
 8      1     1     0
 9      1     1     0
10      4    13     4
# ℹ 94,614 more rows

## That's certainly weird. 

## Remove obs. with num_employ = 0
INDUS_2550 <- INDUS_2550 %>% filter(num_employ > 0)
INDUS_2555 <- INDUS_2555 %>% filter(num_employ > 0)
INDUS_2560 <- INDUS_2560 %>% filter(num_employ > 0)
INDUS_2565 <- INDUS_2565 %>% filter(num_employ > 0)

### See if there's absurdly high number of workers
INDUS_2550 %>% filter(num_employ > 2500)

# A tibble: 117 × 250
     REG   CWT   MUN IND_R SIZE_R    NO    YR   ENU Rec_01   A01       A02   A03
   <dbl> <dbl> <dbl> <dbl>  <dbl> <dbl> <dbl> <dbl>  <dbl> <dbl>     <dbl> <dbl>
 1     1    10     1  3691     14   192    50     1      1     3   1.06e11     3
 2     1    10     1  1810     14   202    50     1      1     3   1.04e11     1
 3     1    10     1  1511     14   209    50     6      1     3   1.06e11     3
 4     1    10     1  3591     14   134    50     1      1     3   1.06e11     1
 5     1    10     1  1512     14   113    50     1      1     3   1   e 0     2
 6     1    10     1  1512     14    78    50     1      1     3   1.08e11     1
 7     1    10     1  1512     14   317    50     1      1     3   1.06e11     2
 8     1    10     1  2899     14   233    50     1      1     3   1.08e11     1
 9     1    10     1  1511     14    32    50     1      1     3   1.06e11     2
10     1    10     1  1810     14   225    50     1      1     3   1.08e11     2
# ℹ 107 more rows
# ℹ 238 more variables: A04 <dbl>, A05 <dbl>, A06 <dbl>, A07 <dbl>, A08 <dbl>,
#   A09 <dbl>, A10 <dbl>, A11 <dbl>, A12 <dbl>, A13 <dbl>, A14 <dbl>,
#   A15 <dbl>, A16 <dbl>, A17 <dbl>, A18 <dbl>, A19 <dbl>, A20 <dbl>,
#   WGT_CWT <dbl>, WGT_REG <dbl>, Rec_02 <dbl>, A21 <dbl>, A22 <dbl>,
#   A221 <dbl>, A222 <dbl>, A23 <dbl>, A24 <dbl>, A25 <dbl>, A26 <dbl>,
#   A261 <dbl>, A262 <dbl>, A27 <dbl>, A28 <dbl>, A29 <dbl>, A30 <dbl>, …
…
